\relax 
\providecommand\hyper@newdestlabel[2]{}
\providecommand\HyperFirstAtBeginDocument{\AtBeginDocument}
\HyperFirstAtBeginDocument{\ifx\hyper@anchor\@undefined
\global\let\oldcontentsline\contentsline
\gdef\contentsline#1#2#3#4{\oldcontentsline{#1}{#2}{#3}}
\global\let\oldnewlabel\newlabel
\gdef\newlabel#1#2{\newlabelxx{#1}#2}
\gdef\newlabelxx#1#2#3#4#5#6{\oldnewlabel{#1}{{#2}{#3}}}
\AtEndDocument{\ifx\hyper@anchor\@undefined
\let\contentsline\oldcontentsline
\let\newlabel\oldnewlabel
\fi}
\fi}
\global\let\hyper@last\relax 
\gdef\HyperFirstAtBeginDocument#1{#1}
\providecommand\HyField@AuxAddToFields[1]{}
\providecommand\HyField@AuxAddToCoFields[2]{}
\@writefile{toc}{\contentsline {section}{\numberline {1}Introduction}{1}{section.1}}
\providecommand*\caption@xref[2]{\@setref\relax\@undefined{#1}}
\newlabel{fig:NPN}{{1a}{1}{An NPN Diode\relax }{figure.caption.1}{}}
\newlabel{sub@fig:NPN}{{a}{1}{An NPN Diode\relax }{figure.caption.1}{}}
\newlabel{fig:PNP}{{1b}{1}{A PNP Diode\relax }{figure.caption.1}{}}
\newlabel{sub@fig:PNP}{{b}{1}{A PNP Diode\relax }{figure.caption.1}{}}
\@writefile{lof}{\contentsline {figure}{\numberline {1}{\ignorespaces Transistor Types\relax }}{1}{figure.caption.1}}
\@writefile{toc}{\contentsline {section}{\numberline {2}Experiment}{2}{section.2}}
\@writefile{toc}{\contentsline {subsection}{\numberline {2.1}Class B}{2}{subsection.2.1}}
